[
    {
        "title": "1:谁是间谍",
        "options": [
            {
                "name": "A",
                "value": "你"
            },
            {
                "name": "B",
                "value": "我"
            },
            {
                "name": "C",
                "value": "他"
            },
            {
                "name": "D",
                "value": "她"
            }
        ],
        "selected": "",
        "answer": "你"
    },
    {
        "title": "2:谁个子最高",
        "options": [
            {
                "name": "A",
                "value": "你"
            },
            {
                "name": "B",
                "value": "我"
            },
            {
                "name": "C",
                "value": "他"
            },
            {
                "name": "D",
                "value": "她"
            }
        ],
        "selected": "",
        "answer": "他"
    },
    {
        "title": "3:谁吃的最多",
        "options": [
            {
                "name": "A",
                "value": "你"
            },
            {
                "name": "B",
                "value": "我"
            },
            {
                "name": "C",
                "value": "他"
            },
            {
                "name": "D",
                "value": "她"
            }
        ],
        "selected": "",
        "answer": "我"
    },
    {
        "title": "4:谁最爱睡懒觉",
        "options": [
            {
                "name": "A",
                "value": "你"
            },
            {
                "name": "B",
                "value": "我"
            },
            {
                "name": "C",
                "value": "他"
            },
            {
                "name": "D",
                "value": "她"
            }
        ],
        "selected": "",
        "answer": "她"
    }
]